
exo3O0.o:     file format elf32-littlearm
exo3O0.o
architecture: armv4t, flags 0x00000011:
HAS_RELOC, HAS_SYMS
start address 0x00000000
private flags = 5000000: [Version5 EABI]

Sections:
Idx Name          Size      VMA       LMA       File off  Algn
  0 .text         000000b8  00000000  00000000  00000034  2**2
                  CONTENTS, ALLOC, LOAD, RELOC, READONLY, CODE
  1 .data         00000004  00000000  00000000  000000ec  2**2
                  CONTENTS, ALLOC, LOAD, DATA
  2 .bss          00000001  00000000  00000000  000000f0  2**0
                  ALLOC
  3 .rodata       00000040  00000000  00000000  000000f0  2**2
                  CONTENTS, ALLOC, LOAD, READONLY, DATA
  4 .comment      00000032  00000000  00000000  00000130  2**0
                  CONTENTS, READONLY
  5 .ARM.attributes 00000030  00000000  00000000  00000162  2**0
                  CONTENTS, READONLY
SYMBOL TABLE:
00000000 l    df *ABS*	00000000 exo3.c
00000000 l    d  .text	00000000 .text
00000000 l    d  .data	00000000 .data
00000000 l    d  .bss	00000000 .bss
00000000 l    d  .rodata	00000000 .rodata
00000000 l     O .rodata	0000000e mesg
00000000 l       .bss	00000001 z.5126
00000000 l    d  .comment	00000000 .comment
00000000 l    d  .ARM.attributes	00000000 .ARM.attributes
00000000 g     O .data	00000004 x
00000004       O *COM*	00000004 y
00000000 g     F .text	000000b8 main
00000000         *UND*	00000000 puts
00000000         *UND*	00000000 printf


RELOCATION RECORDS FOR [.text]:
OFFSET   TYPE              VALUE 
0000005c R_ARM_CALL        puts
0000008c R_ARM_CALL        printf
000000a0 R_ARM_V4BX        *ABS*
000000a4 R_ARM_ABS32       y
000000a8 R_ARM_ABS32       .bss
000000ac R_ARM_ABS32       .rodata
000000b0 R_ARM_ABS32       x
000000b4 R_ARM_ABS32       .rodata


