
exo3Os.o:     file format elf32-littlearm
exo3Os.o
architecture: armv4t, flags 0x00000011:
HAS_RELOC, HAS_SYMS
start address 0x00000000
private flags = 5000000: [Version5 EABI]

Sections:
Idx Name          Size      VMA       LMA       File off  Algn
  0 .text         00000000  00000000  00000000  00000034  2**0
                  CONTENTS, ALLOC, LOAD, READONLY, CODE
  1 .data         00000004  00000000  00000000  00000034  2**2
                  CONTENTS, ALLOC, LOAD, DATA
  2 .bss          00000001  00000000  00000000  00000038  2**0
                  ALLOC
  3 .text.startup 00000070  00000000  00000000  00000038  2**2
                  CONTENTS, ALLOC, LOAD, RELOC, READONLY, CODE
  4 .rodata       0000000e  00000000  00000000  000000a8  2**0
                  CONTENTS, ALLOC, LOAD, READONLY, DATA
  5 .rodata.str1.1 0000002d  00000000  00000000  000000b6  2**0
                  CONTENTS, ALLOC, LOAD, READONLY, DATA
  6 .comment      00000032  00000000  00000000  000000e3  2**0
                  CONTENTS, READONLY
  7 .ARM.attributes 00000030  00000000  00000000  00000115  2**0
                  CONTENTS, READONLY
SYMBOL TABLE:
00000000 l    df *ABS*	00000000 exo3.c
00000000 l    d  .text	00000000 .text
00000000 l    d  .data	00000000 .data
00000000 l    d  .bss	00000000 .bss
00000000 l    d  .text.startup	00000000 .text.startup
00000000 l    d  .rodata	00000000 .rodata
00000000 l     O .bss	00000001 z.5126
00000000 l    d  .rodata.str1.1	00000000 .rodata.str1.1
00000000 l    d  .comment	00000000 .comment
00000000 l    d  .ARM.attributes	00000000 .ARM.attributes
00000000 g     F .text.startup	00000070 main
00000000         *UND*	00000000 puts
00000000         *UND*	00000000 printf
00000004       O *COM*	00000004 y
00000000 g     O .rodata	0000000e mesg
00000000 g     O .data	00000004 x


RELOCATION RECORDS FOR [.text.startup]:
OFFSET   TYPE              VALUE 
0000002c R_ARM_CALL        puts
00000048 R_ARM_CALL        printf
00000058 R_ARM_V4BX        *ABS*
0000005c R_ARM_ABS32       .bss
00000060 R_ARM_ABS32       y
00000064 R_ARM_ABS32       .rodata.str1.1
00000068 R_ARM_ABS32       .data
0000006c R_ARM_ABS32       .rodata.str1.1


